Variance estimators
…
         ibd      g1     g2    prs1    prs2     y1     y2
ibd   1.0000 -0.0020 0.0068 -0.0063 -0.0045 0.0054 0.0077
g1   -0.0020  1.0000 0.5061  0.0085  0.0212 0.0649 0.0551
g2    0.0068  0.5061 1.0000  0.0089  0.0076 0.0329 0.0665
prs1 -0.0063  0.0085 0.0089  1.0000  0.4877 0.7760 0.3816
prs2 -0.0045  0.0212 0.0076  0.4877  1.0000 0.3818 0.7721
y1    0.0054  0.0649 0.0329  0.7760  0.3818 1.0000 0.4011
y2    0.0077  0.0551 0.0665  0.3816  0.7721 0.4011 1.0000

Now how to estimate variance effect? At a locus restrict to sib pairs who are IBD = 1

fam <- sim_sibs(af=0.5, nfam=40000, beta1=0.1, beta2=0.2, h2=0.3, c2=0.1)
fam

# A tibble: 40,000 × 7
     ibd    g1    g2 prs1[,1] prs2[,1]  y1[,1] y2[,1]
   <dbl> <dbl> <dbl>    <dbl>    <dbl>   <dbl>  <dbl>
 1 0.477     1     1 -0.333      0.360 -0.244   0.210
 2 0.437     2     2 -0.376     -0.516 -0.455   0.164
 3 0.511     1     1  0.0654    -0.613  0.247  -1.47 
 4 0.523     2     1  0.652      0.371  1.14    0.728
 5 0.506     0     0 -0.0106     0.456  0.0296  0.410
 6 0.483     1     2  0.0979     0.391  1.84    1.66 
 7 0.471     1     2  0.0902     0.495  0.0733 -0.518
 8 0.460     1     1 -0.451     -0.160 -0.941   0.344
 9 0.511     1     0  0.734      0.532  1.73    0.803
10 0.477     1     0  0.00962   -0.546  1.15   -0.801
# … with 39,990 more rows
…
